%YAML 1.1
%TAG !u! tag:unity3d.com,2011:
--- !u!1045 &1
EditorBuildSettings:
  m_ObjectHideFlags: 0
  serializedVersion: 2
  m_Scenes:
  - enabled: 1
    path: Assets/Scenes/Menu.unity
    guid: a01817eed234a2f49bbd5b0e1809b279
  - enabled: 1
    path: Assets/Scenes/Game.unity
    guid: 208b728d28576884887cf18b349c0f93
  m_configObjects: {}
